…
``` r
pacman::p_load(tidyverse)

plot_df <- 
left_join(
fmxdat::Indexes %>% gather(Country, TRI, -Date),
fmxdat::Indexes_Labs,
by = "Country"
) %>% mutate(Label = coalesce(Label, "Other")) %>% arrange(Date)
  
print(plot_df)
```

    ## # A tibble: 16,590 × 4
    ##    Date       Country    TRI Label
    ##    <date>     <chr>    <dbl> <chr>
    ##  1 2000-01-14 brz     1420.  Brics
    ##  2 2000-01-14 chl       NA   Other
    ##  3 2000-01-14 chn       36.7 Brics
    ##  4 2000-01-14 col      105.  Other
    ##  5 2000-01-14 cze       91.7 Other
    ##  6 2000-01-14 egt      352.  HEGP 
    ##  7 2000-01-14 grc     1215.  Other
    ##  8 2000-01-14 hun      369.  HEGP 
    ##  9 2000-01-14 ind      175.  Brics
    ## 10 2000-01-14 ino      280.  Other
    ## # ℹ 16,580 more rows
…
